{
  "builders": [
    {
      "boot_command": [
        "<esc><wait>",
        "<esc><wait>",
        "<enter><wait>",
        "/install/vmlinuz<wait>",
        " auto<wait>",
        " console-setup/ask_detect=false<wait>",
        " console-setup/layoutcode=us<wait>",
        " console-setup/modelcode=pc105<wait>",
        " debconf/frontend=noninteractive<wait>",
        " debian-installer=en_US.UTF-8<wait>",
        " fb=false<wait>",
        " initrd=/install/initrd.gz<wait>",
        " kbd-chooser/method=us<wait>",
        " keyboard-configuration/layout=USA<wait>",
        " keyboard-configuration/variant=USA<wait>",
        " locale=en_US.UTF-8<wait>",
        " netcfg/get_domain=vm<wait>",
        " netcfg/get_hostname=vagrant<wait>",
        " grub-installer/bootdev=/dev/sda<wait>",
        " noapic<wait>",
        " preseed/url=http://{{ .HTTPIP }}:{{ .HTTPPort }}/{{user `preseed_path`}}<wait>",
        " -- <wait>",
        "<enter><wait>"
      ],
      "boot_wait": "5s",
      "cpus": "{{ user `cpus` }}",
      "disk_size": "{{user `disk_size`}}",
      "guest_additions_path": "VBoxGuestAdditions_{{.Version}}.iso",
      "guest_additions_url": "{{ user `guest_additions_url` }}",
      "guest_os_type": "Ubuntu_64",
      "hard_drive_interface": "sata",
      "headless": "{{ user `headless` }}",
      "http_directory": "{{user `http_directory`}}",
      "iso_checksum": "{{user `iso_checksum`}}",
      "iso_url": "{{user `mirror`}}/{{user `mirror_directory`}}/{{user `iso_name`}}",
      "memory": "{{ user `memory` }}",
      "output_directory": "{{ user `build_directory` }}/packer-{{user `template`}}-virtualbox",
      "shutdown_command": "echo 'vagrant' | sudo -S shutdown -P now",
      "ssh_password": "vagrant",
      "ssh_port": 22,
      "ssh_timeout": "10000s",
      "ssh_username": "vagrant",
      "type": "virtualbox-iso",
      "virtualbox_version_file": ".vbox_version",
      "vm_name": "{{ user `template` }}"
    },
    {
      "boot_command": [
        "<esc><wait>",
        "<esc><wait>",
        "<enter><wait>",
        "/install/vmlinuz<wait>",
        " auto<wait>",
        " console-setup/ask_detect=false<wait>",
        " console-setup/layoutcode=us<wait>",
        " console-setup/modelcode=pc105<wait>",
        " debconf/frontend=noninteractive<wait>",
        " debian-installer=en_US.UTF-8<wait>",
        " fb=false<wait>",
        " initrd=/install/initrd.gz<wait>",
        " kbd-chooser/method=us<wait>",
        " keyboard-configuration/layout=USA<wait>",
        " keyboard-configuration/variant=USA<wait>",
        " locale=en_US.UTF-8<wait>",
        " netcfg/get_domain=vm<wait>",
        " netcfg/get_hostname=vagrant<wait>",
        " grub-installer/bootdev=/dev/sda<wait>",
        " noapic<wait>",
        " preseed/url=http://{{ .HTTPIP }}:{{ .HTTPPort }}/{{user `preseed_path`}}<wait>",
        " -- <wait>",
        "<enter><wait>"
      ],
      "boot_wait": "5s",
      "cpus": "{{ user `cpus` }}",
            "disk_adapter_type": "sata",
      "disk_size": "{{user `disk_size`}}",
      "guest_os_type": "ubuntu-64",
      "headless": "{{ user `headless` }}",
      "http_directory": "{{user `http_directory`}}",
      "iso_checksum": "{{user `iso_checksum`}}",
      "iso_url": "{{user `mirror`}}/{{user `mirror_directory`}}/{{user `iso_name`}}",
      "memory": "{{ user `memory` }}",
      "output_directory": "{{ user `build_directory` }}/packer-{{user `template`}}-vmware",
      "shutdown_command": "echo 'vagrant' | sudo -S shutdown -P now",
      "ssh_password": "vagrant",
      "ssh_port": 22,
      "ssh_timeout": "10000s",
      "ssh_username": "vagrant",
      "tools_upload_flavor": "linux",
      "type": "vmware-iso",
      "vm_name": "{{ user `template` }}",
      "vmx_data": {
        "cpuid.coresPerSocket": "1",
        "ethernet0.pciSlotNumber": "32"
      },
      "vmx_remove_ethernet_interfaces": true
    },
    {
      "boot_command": [
        "<esc><wait>",
        "<esc><wait>",
        "<enter><wait>",
        "/install/vmlinuz<wait>",
        " auto<wait>",
        " console-setup/ask_detect=false<wait>",
        " console-setup/layoutcode=us<wait>",
        " console-setup/modelcode=pc105<wait>",
        " debconf/frontend=noninteractive<wait>",
        " debian-installer=en_US.UTF-8<wait>",
        " fb=false<wait>",
        " initrd=/install/initrd.gz<wait>",
        " kbd-chooser/method=us<wait>",
        " keyboard-configuration/layout=USA<wait>",
        " keyboard-configuration/variant=USA<wait>",
        " locale=en_US.UTF-8<wait>",
        " netcfg/get_domain=vm<wait>",
        " netcfg/get_hostname=vagrant<wait>",
        " grub-installer/bootdev=/dev/sda<wait>",
        " noapic<wait>",
        " preseed/url=http://{{ .HTTPIP }}:{{ .HTTPPort }}/{{user `preseed_path`}}<wait>",
        " -- <wait>",
        "<enter><wait>"
      ],
      "boot_wait": "5s",
      "cpus": "{{ user `cpus` }}",
      "disk_size": "{{user `disk_size`}}",
      "guest_os_type": "ubuntu",
      "http_directory": "{{user `http_directory`}}",
      "iso_checksum": "{{user `iso_checksum`}}",
      "iso_url": "{{user `mirror`}}/{{user `mirror_directory`}}/{{user `iso_name`}}",
      "memory": "{{ user `memory` }}",
      "output_directory": "{{ user `build_directory` }}/packer-{{user `template`}}-parallels",
      "parallels_tools_flavor": "lin",
      "prlctl_version_file": ".prlctl_version",
      "shutdown_command": "echo 'vagrant' | sudo -S shutdown -P now",
      "ssh_password": "vagrant",
      "ssh_port": 22,
      "ssh_timeout": "10000s",
      "ssh_username": "vagrant",
      "type": "parallels-iso",
      "vm_name": "{{ user `template` }}"
    },
    {
      "boot_command": [
        "<esc><wait>",
        "<esc><wait>",
        "<enter><wait>",
        "/install/vmlinuz<wait>",
        " auto<wait>",
        " console-setup/ask_detect=false<wait>",
        " console-setup/layoutcode=us<wait>",
        " console-setup/modelcode=pc105<wait>",
        " debconf/frontend=noninteractive<wait>",
        " debian-installer=en_US.UTF-8<wait>",
        " fb=false<wait>",
        " initrd=/install/initrd.gz<wait>",
        " kbd-chooser/method=us<wait>",
        " keyboard-configuration/layout=USA<wait>",
        " keyboard-configuration/variant=USA<wait>",
        " locale=en_US.UTF-8<wait>",
        " netcfg/get_domain=vm<wait>",
        " netcfg/get_hostname=vagrant<wait>",
        " grub-installer/bootdev=/dev/vda<wait>",
        " noapic<wait>",
        " preseed/url=http://{{ .HTTPIP }}:{{ .HTTPPort }}/{{user `preseed_path`}}<wait>",
        " -- <wait>",
        "<enter><wait>"
      ],
      "boot_wait": "5s",
      "cpus": "{{ user `cpus` }}",
      "disk_size": "{{user `disk_size`}}",
      "headless": "{{ user `headless` }}",
      "http_directory": "{{user `http_directory`}}",
      "iso_checksum": "{{user `iso_checksum`}}",
      "iso_url": "{{user `mirror`}}/{{user `mirror_directory`}}/{{user `iso_name`}}",
      "memory": "{{ user `memory` }}",
      "output_directory": "{{ user `build_directory` }}/packer-{{user `template`}}-qemu",
      "shutdown_command": "echo 'vagrant' | sudo -S shutdown -P now",
      "ssh_password": "vagrant",
      "ssh_port": 22,
      "ssh_timeout": "10000s",
      "ssh_username": "vagrant",
      "type": "qemu",
      "vm_name": "{{ user `template` }}"
    },
    {
      "boot_command": [
        "<esc><wait10><esc><esc><enter><wait>",
        "set gfxpayload=1024x768<enter>",
        "linux /install/vmlinuz ",
        "preseed/url=http://{{.HTTPIP}}:{{.HTTPPort}}/preseed-hyperv.cfg ",
        "debian-installer=en_US.UTF-8 auto locale=en_US.UTF-8 kbd-chooser/method=us ",
        "hostname={{.Name}} ",
        "fb=false debconf/frontend=noninteractive ",
        "keyboard-configuration/modelcode=SKIP keyboard-configuration/layout=USA ",
        "keyboard-configuration/variant=USA console-setup/ask_detect=false <enter>",
        "initrd /install/initrd.gz<enter>",
        "boot<enter>"
      ],
      "boot_wait": "5s",
      "communicator": "ssh",
      "cpus": "{{ user `cpus` }}",
      "disk_size": "{{user `disk_size`}}",
      "enable_secure_boot": false,
      "generation": "{{user `hyperv_generation`}}",
      "http_directory": "{{user `http_directory`}}",
      "iso_checksum": "{{user `iso_checksum`}}",
      "iso_url": "{{user `mirror`}}/{{user `mirror_directory`}}/{{user `iso_name`}}",
      "memory": "{{user `memory`}}",
      "output_directory": "{{ user `build_directory` }}/packer-{{user `template`}}-hyperv",
      "shutdown_command": "echo 'vagrant' | sudo -S shutdown -P now",
      "ssh_password": "vagrant",
      "ssh_port": 22,
      "ssh_timeout": "10000s",
      "ssh_username": "vagrant",
      "switch_name": "{{user `hyperv_switch`}}",
      "type": "hyperv-iso",
      "vm_name": "{{ user `template` }}"
    }
  ],
  "post-processors": [
    {
      "output": "{{ user `build_directory` }}/{{user `box_basename`}}.{{.Provider}}.box",
      "type": "vagrant"
    }
  ],
  "provisioners": [
    {
      "environment_vars": [
        "HOME_DIR=/home/vagrant",
        "http_proxy={{user `http_proxy`}}",
        "https_proxy={{user `https_proxy`}}",
        "no_proxy={{user `no_proxy`}}"
      ],
      "execute_command": "echo 'vagrant' | {{.Vars}} sudo -S -E sh -eux '{{.Path}}'",
      "expect_disconnect": true,
      "scripts": [
        "{{template_dir}}/scripts/update.sh",
        "{{template_dir}}/scripts/motd.sh",
        "{{template_dir}}/scripts/sshd.sh",
        "{{template_dir}}/scripts/networking.sh",
        "{{template_dir}}/scripts/sudoers.sh",
        "{{template_dir}}/scripts/vagrant.sh",
        "{{template_dir}}/scripts/virtualbox.sh",
        "{{template_dir}}/scripts/vmware.sh",
        "{{template_dir}}/scripts/hyperv.sh",
        "{{template_dir}}/scripts/cleanup.sh",
        "{{template_dir}}/scripts/minimize.sh"
      ],
      "type": "shell"
    },
    {
      "type": "ansible",
      "playbook_file": "node-playbook.yml"
    }
  ],
  "variables": {
    "box_basename": "ubuntu-20.04",
    "build_directory": "../../builds",
    "build_timestamp": "{{isotime \"20060102150405\"}}",
    "cpus": "2",
    "disk_size": "65536",
    "git_revision": "__unknown_git_revision__",
    "guest_additions_url": "",
    "headless": "",
    "http_directory": "{{template_dir}}/http",
    "http_proxy": "{{env `http_proxy`}}",
    "https_proxy": "{{env `https_proxy`}}",
    "hyperv_generation": "2",
    "hyperv_switch": "bento",
    "iso_checksum": "f11bda2f2caed8f420802b59f382c25160b114ccc665dbac9c5046e7fceaced2",
    "iso_name": "ubuntu-20.04.1-legacy-server-amd64.iso",
    "memory": "1024",
    "mirror": "http://cdimage.ubuntu.com",
    "mirror_directory": "ubuntu-legacy-server/releases/20.04.1/release",
    "name": "ubuntu-20.04",
    "no_proxy": "{{env `no_proxy`}}",
    "preseed_path": "preseed.cfg",
    "template": "ubuntu-20.04-amd64",
    "version": "TIMESTAMP"
  }
}
